EESchema Schematic File Version 4
LIBS:tinyboost-cache
EELAYER 26 0
EELAYER END
$Descr A4 11693 8268
encoding utf-8
Sheet 1 1
Title "tinycoolboard"
Date "2018-04-02"
Rev "1.0"
Comp ""
Comment1 ""
Comment2 ""
Comment3 ""
Comment4 ""
$EndDescr
$Comp
L Device:L_Small L1
U 1 1 5AC0E8C4
P 5000 1325
F 0 "L1" V 5185 1325 50  0000 C CNN
F 1 "10uH" V 5094 1325 50  0000 C CNN
F 2 "Inductor_SMD:L_Wuerth_WE-PD-Typ-M-Typ-S" H 5000 1325 50  0001 C CNN
F 3 "~" H 5000 1325 50  0001 C CNN
	1    5000 1325
	0    -1   -1   0   
$EndComp
$Comp
L power:GND #PWR0102
U 1 1 5AC0EF2F
P 2350 1700
F 0 "#PWR0102" H 2350 1450 50  0001 C CNN
F 1 "GND" H 2355 1527 50  0000 C CNN
F 2 "" H 2350 1700 50  0001 C CNN
F 3 "" H 2350 1700 50  0001 C CNN
	1    2350 1700
	1    0    0    -1  
$EndComp
$Comp
L Device:R R1
U 1 1 5AC0F70E
P 5375 1650
F 0 "R1" H 5445 1696 50  0000 L CNN
F 1 "53kOhm" H 5445 1605 50  0000 L CNN
F 2 "Resistor_SMD:R_0603_1608Metric_Pad0.84x1.00mm_HandSolder" V 5305 1650 50  0001 C CNN
F 3 "~" H 5375 1650 50  0001 C CNN
	1    5375 1650
	1    0    0    -1  
$EndComp
$Comp
L Device:R R2
U 1 1 5AC0F776
P 5375 2175
F 0 "R2" H 5445 2221 50  0000 L CNN
F 1 "10kOhm" H 5445 2130 50  0000 L CNN
F 2 "Resistor_SMD:R_0603_1608Metric_Pad0.84x1.00mm_HandSolder" V 5305 2175 50  0001 C CNN
F 3 "~" H 5375 2175 50  0001 C CNN
	1    5375 2175
	1    0    0    -1  
$EndComp
$Comp
L Device:C C1
U 1 1 5AC107F9
P 6075 1675
F 0 "C1" H 6190 1721 50  0000 L CNN
F 1 "10uF" H 6190 1630 50  0000 L CNN
F 2 "Capacitor_SMD:C_0603_1608Metric" H 6113 1525 50  0001 C CNN
F 3 "~" H 6075 1675 50  0001 C CNN
	1    6075 1675
	1    0    0    -1  
$EndComp
$Comp
L power:GND #PWR0104
U 1 1 5AC10875
P 6075 1825
F 0 "#PWR0104" H 6075 1575 50  0001 C CNN
F 1 "GND" H 6080 1652 50  0000 C CNN
F 2 "" H 6075 1825 50  0001 C CNN
F 3 "" H 6075 1825 50  0001 C CNN
	1    6075 1825
	1    0    0    -1  
$EndComp
Connection ~ 5375 1325
$Comp
L Device:C C3
U 1 1 5AC0F457
P 2350 1550
F 0 "C3" H 2465 1596 50  0000 L CNN
F 1 "10uF" H 2465 1505 50  0000 L CNN
F 2 "Capacitor_SMD:C_0603_1608Metric" H 2388 1400 50  0001 C CNN
F 3 "~" H 2350 1550 50  0001 C CNN
	1    2350 1550
	1    0    0    -1  
$EndComp
$Comp
L power:GND #PWR0107
U 1 1 5AC145AD
P 5375 2450
F 0 "#PWR0107" H 5375 2200 50  0001 C CNN
F 1 "GND" H 5380 2277 50  0000 C CNN
F 2 "" H 5375 2450 50  0001 C CNN
F 3 "" H 5375 2450 50  0001 C CNN
	1    5375 2450
	1    0    0    -1  
$EndComp
Wire Wire Line
	6075 1325 6075 1525
$Comp
L Graphic:Logo_Open_Hardware_Small #LOGO1
U 1 1 5AC211E4
P 7425 6850
F 0 "#LOGO1" H 7425 7125 50  0001 C CNN
F 1 "Logo_Open_Hardware_Small" H 7425 6625 50  0001 C CNN
F 2 "" H 7425 6850 50  0001 C CNN
F 3 "~" H 7425 6850 50  0001 C CNN
	1    7425 6850
	1    0    0    -1  
$EndComp
$Comp
L Connector_Generic:Conn_02x04_Odd_Even J3
U 1 1 5ACA5CEF
P 1775 4625
F 0 "J3" H 1825 4942 50  0000 C CNN
F 1 "NRF" H 1825 4851 50  0000 C CNN
F 2 "Connector_PinHeader_2.54mm:PinHeader_2x04_P2.54mm_Vertical" H 1775 4625 50  0001 C CNN
F 3 "~" H 1775 4625 50  0001 C CNN
	1    1775 4625
	1    0    0    -1  
$EndComp
$Comp
L Transistor_FET:Si2319CDS Q1
U 1 1 5ACA63A6
P 1075 1700
F 0 "Q1" H 1280 1746 50  0000 L CNN
F 1 "Si2319CDS" H 1280 1655 50  0000 L CNN
F 2 "Package_TO_SOT_SMD:SOT-23" H 1275 1625 50  0001 L CIN
F 3 "http://www.vishay.com/docs/66709/si2319cd.pdf" H 1075 1700 50  0001 L CNN
	1    1075 1700
	1    0    0    -1  
$EndComp
$Comp
L MCU_ST_STM32:STM32F042F6Px U2
U 1 1 5ACA6EE4
P 5750 4275
F 0 "U2" H 5750 3289 50  0000 C CNN
F 1 "STM32F042F6Px" H 6150 3425 50  0000 C CNN
F 2 "Package_SO:TSSOP-20_4.4x6.5mm_P0.65mm" H 8550 5150 50  0001 R TNN
F 3 "http://www.st.com/st-web-ui/static/active/en/resource/technical/document/datasheet/DM00105814.pdf" H 5750 4275 50  0001 C CNN
	1    5750 4275
	1    0    0    -1  
$EndComp
$Comp
L Connector_Generic:Conn_01x03 J4
U 1 1 5ACA5342
P 3100 6375
F 0 "J4" H 3180 6417 50  0000 L CNN
F 1 "SWD" H 3180 6326 50  0000 L CNN
F 2 "Connector_PinHeader_2.54mm:PinHeader_1x03_P2.54mm_Vertical" H 3100 6375 50  0001 C CNN
F 3 "~" H 3100 6375 50  0001 C CNN
	1    3100 6375
	1    0    0    -1  
$EndComp
$Comp
L Regulator_Linear:MCP1700-1202E_SOT23 U3
U 1 1 5ACA59A1
P 9000 1450
F 0 "U3" H 9000 1692 50  0000 C CNN
F 1 "MCP1702" H 9000 1601 50  0000 C CNN
F 2 "Package_TO_SOT_SMD:SOT-23" H 9000 1675 50  0001 C CNN
F 3 "http://ww1.microchip.com/downloads/en/DeviceDoc/20001826C.pdf" H 9000 1450 50  0001 C CNN
	1    9000 1450
	1    0    0    -1  
$EndComp
Text GLabel 1300 2850 2    50   Input ~ 0
VIN+
$Comp
L power:GND #PWR0109
U 1 1 5ADB517C
P 1300 2950
F 0 "#PWR0109" H 1300 2700 50  0001 C CNN
F 1 "GND" V 1305 2822 50  0000 R CNN
F 2 "" H 1300 2950 50  0001 C CNN
F 3 "" H 1300 2950 50  0001 C CNN
	1    1300 2950
	0    -1   -1   0   
$EndComp
$Comp
L Connector:USB_B_Micro J5
U 1 1 5ADB6143
P 4075 6675
F 0 "J5" H 4130 7142 50  0000 C CNN
F 1 "USB_B_Micro" H 4130 7051 50  0000 C CNN
F 2 "Connector_USB:USB_Micro-B_Molex-105017-0001" H 4225 6625 50  0001 C CNN
F 3 "~" H 4225 6625 50  0001 C CNN
	1    4075 6675
	1    0    0    -1  
$EndComp
$Comp
L Transistor_FET:FDS6930A Q2
U 1 1 5ADB6A88
P 1600 6175
F 0 "Q2" H 1805 6221 50  0000 L CNN
F 1 "FDS6930A" H 1805 6130 50  0000 L CNN
F 2 "Package_SO:SOIC-8_3.9x4.9mm_P1.27mm" H 1800 6100 50  0001 L CIN
F 3 "http://www.onsemi.com/pub/Collateral/FDS6930A-D.PDF" H 1600 6175 50  0001 L CNN
	1    1600 6175
	1    0    0    -1  
$EndComp
$Comp
L Connector:Conn_01x02_Male J1
U 1 1 5ADB72D1
P 1100 2850
F 0 "J1" H 1206 3028 50  0000 C CNN
F 1 "Battery" H 1206 2937 50  0000 C CNN
F 2 "Battery:BatteryHolder_2cells" H 1100 2850 50  0001 C CNN
F 3 "~" H 1100 2850 50  0001 C CNN
	1    1100 2850
	1    0    0    -1  
$EndComp
$Comp
L Regulator_Switching:MCP16311MS U4
U 1 1 5ADC7A30
P 3650 1525
F 0 "U4" H 3650 2092 50  0000 C CNN
F 1 "MCP16311MS" H 3650 2001 50  0000 C CNN
F 2 "Package_SO:MSOP-8_3x3mm_P0.65mm" H 3800 1275 50  0001 L CNN
F 3 "http://ww1.microchip.com/downloads/en/DeviceDoc/20005255B.pdf" H 3350 2075 50  0001 C CNN
	1    3650 1525
	1    0    0    -1  
$EndComp
Text GLabel 1175 1900 3    50   Input ~ 0
VIN+
$Comp
L power:GND #PWR0101
U 1 1 5ADC81E0
P 875 1700
F 0 "#PWR0101" H 875 1450 50  0001 C CNN
F 1 "GND" H 880 1527 50  0000 C CNN
F 2 "" H 875 1700 50  0001 C CNN
F 3 "" H 875 1700 50  0001 C CNN
	1    875  1700
	0    1    1    0   
$EndComp
$Comp
L power:+12V #PWR0103
U 1 1 5ADC8405
P 1175 1500
F 0 "#PWR0103" H 1175 1350 50  0001 C CNN
F 1 "+12V" H 1190 1673 50  0000 C CNN
F 2 "" H 1175 1500 50  0001 C CNN
F 3 "" H 1175 1500 50  0001 C CNN
	1    1175 1500
	1    0    0    -1  
$EndComp
$Comp
L power:GND #PWR0105
U 1 1 5ADC86BD
P 1950 1700
F 0 "#PWR0105" H 1950 1450 50  0001 C CNN
F 1 "GND" H 1955 1527 50  0000 C CNN
F 2 "" H 1950 1700 50  0001 C CNN
F 3 "" H 1950 1700 50  0001 C CNN
	1    1950 1700
	1    0    0    -1  
$EndComp
$Comp
L Device:C C2
U 1 1 5ADC86C3
P 1950 1550
F 0 "C2" H 2065 1596 50  0000 L CNN
F 1 "10uF" H 2065 1505 50  0000 L CNN
F 2 "Capacitor_SMD:C_0603_1608Metric" H 1988 1400 50  0001 C CNN
F 3 "~" H 1950 1550 50  0001 C CNN
	1    1950 1550
	1    0    0    -1  
$EndComp
$Comp
L Device:C C6
U 1 1 5ADC8FE1
P 6550 1675
F 0 "C6" H 6665 1721 50  0000 L CNN
F 1 "10uF" H 6665 1630 50  0000 L CNN
F 2 "Capacitor_SMD:C_0603_1608Metric" H 6588 1525 50  0001 C CNN
F 3 "~" H 6550 1675 50  0001 C CNN
	1    6550 1675
	1    0    0    -1  
$EndComp
Wire Wire Line
	6075 1325 6550 1325
Wire Wire Line
	6550 1325 6550 1525
Connection ~ 6075 1325
$Comp
L power:GND #PWR0106
U 1 1 5ADC937F
P 6550 1825
F 0 "#PWR0106" H 6550 1575 50  0001 C CNN
F 1 "GND" H 6555 1652 50  0000 C CNN
F 2 "" H 6550 1825 50  0001 C CNN
F 3 "" H 6550 1825 50  0001 C CNN
	1    6550 1825
	1    0    0    -1  
$EndComp
$Comp
L power:+5V #PWR0108
U 1 1 5ADC941D
P 6950 1325
F 0 "#PWR0108" H 6950 1175 50  0001 C CNN
F 1 "+5V" V 6965 1453 50  0000 L CNN
F 2 "" H 6950 1325 50  0001 C CNN
F 3 "" H 6950 1325 50  0001 C CNN
	1    6950 1325
	0    1    1    0   
$EndComp
Wire Wire Line
	6550 1325 6950 1325
Connection ~ 6550 1325
Wire Wire Line
	5375 1325 6075 1325
Wire Wire Line
	5100 1325 5375 1325
Wire Wire Line
	5375 1325 5375 1500
$Comp
L Device:C C5
U 1 1 5ADCA06B
P 4450 925
F 0 "C5" H 4565 971 50  0000 L CNN
F 1 "100nF" H 4565 880 50  0000 L CNN
F 2 "Capacitor_SMD:C_0603_1608Metric" H 4488 775 50  0001 C CNN
F 3 "~" H 4450 925 50  0001 C CNN
	1    4450 925 
	0    1    1    0   
$EndComp
Wire Wire Line
	4050 1225 4250 1225
Wire Wire Line
	4050 1325 4725 1325
Wire Wire Line
	4600 925  4725 925 
Wire Wire Line
	4725 925  4725 1325
Connection ~ 4725 1325
Wire Wire Line
	4725 1325 4900 1325
Wire Wire Line
	4250 1225 4250 925 
Wire Wire Line
	4250 925  4300 925 
Wire Wire Line
	5375 1800 5375 1900
Wire Wire Line
	4050 1525 5050 1525
Wire Wire Line
	5050 1525 5050 1900
Wire Wire Line
	5050 1900 5375 1900
Connection ~ 5375 1900
Wire Wire Line
	5375 1900 5375 2025
Wire Wire Line
	5375 2325 5375 2450
$Comp
L power:GND #PWR0110
U 1 1 5ADCCCA3
P 3700 1925
F 0 "#PWR0110" H 3700 1675 50  0001 C CNN
F 1 "GND" H 3705 1752 50  0000 C CNN
F 2 "" H 3700 1925 50  0001 C CNN
F 3 "" H 3700 1925 50  0001 C CNN
	1    3700 1925
	1    0    0    -1  
$EndComp
$Comp
L power:+12V #PWR0111
U 1 1 5ADCCD3E
P 1700 1050
F 0 "#PWR0111" H 1700 900 50  0001 C CNN
F 1 "+12V" H 1715 1223 50  0000 C CNN
F 2 "" H 1700 1050 50  0001 C CNN
F 3 "" H 1700 1050 50  0001 C CNN
	1    1700 1050
	1    0    0    -1  
$EndComp
Wire Wire Line
	3250 1325 3200 1325
Wire Wire Line
	3200 1325 3200 1275
Wire Wire Line
	3200 1225 3250 1225
Connection ~ 3200 1275
Wire Wire Line
	3200 1275 3200 1225
$Comp
L Device:C C8
U 1 1 5ADCD580
P 9475 1675
F 0 "C8" H 9590 1721 50  0000 L CNN
F 1 "1uF" H 9590 1630 50  0000 L CNN
F 2 "Capacitor_SMD:C_0603_1608Metric" H 9513 1525 50  0001 C CNN
F 3 "~" H 9475 1675 50  0001 C CNN
	1    9475 1675
	1    0    0    -1  
$EndComp
Wire Wire Line
	-200 2650 -25  2650
Wire Wire Line
	-25  2650 -25  2725
Wire Wire Line
	9475 1825 9475 1900
Wire Wire Line
	9000 1900 9000 1750
$Comp
L Device:C C7
U 1 1 5ADCDF64
P 8500 1675
F 0 "C7" H 8615 1721 50  0000 L CNN
F 1 "1uF" H 8615 1630 50  0000 L CNN
F 2 "Capacitor_SMD:C_0603_1608Metric" H 8538 1525 50  0001 C CNN
F 3 "~" H 8500 1675 50  0001 C CNN
	1    8500 1675
	1    0    0    -1  
$EndComp
Wire Wire Line
	8700 1450 8500 1450
Wire Wire Line
	8500 1450 8500 1525
Wire Wire Line
	8500 1825 8500 1900
Wire Wire Line
	8500 1900 9000 1900
Connection ~ 9000 1900
Wire Wire Line
	9000 1900 9475 1900
Wire Wire Line
	-25  2650 475  2650
Wire Wire Line
	475  2650 475  2750
Connection ~ -25  2650
$Comp
L power:+5V #PWR0112
U 1 1 5ADCF94B
P 8175 1350
F 0 "#PWR0112" H 8175 1200 50  0001 C CNN
F 1 "+5V" H 8190 1523 50  0000 C CNN
F 2 "" H 8175 1350 50  0001 C CNN
F 3 "" H 8175 1350 50  0001 C CNN
	1    8175 1350
	1    0    0    -1  
$EndComp
Wire Wire Line
	8500 1450 8175 1450
Wire Wire Line
	8175 1450 8175 1350
Connection ~ 8500 1450
$Comp
L power:+3V3 #PWR0113
U 1 1 5ADD0239
P 9975 1550
F 0 "#PWR0113" H 9975 1400 50  0001 C CNN
F 1 "+3V3" H 9990 1723 50  0000 C CNN
F 2 "" H 9975 1550 50  0001 C CNN
F 3 "" H 9975 1550 50  0001 C CNN
	1    9975 1550
	-1   0    0    1   
$EndComp
Wire Wire Line
	3650 1825 3650 1875
Wire Wire Line
	3650 1875 3700 1875
Wire Wire Line
	3750 1875 3750 1825
Wire Wire Line
	3700 1925 3700 1875
Connection ~ 3700 1875
Wire Wire Line
	3700 1875 3750 1875
$Comp
L Device:C C4
U 1 1 5ADD3297
P 3100 1725
F 0 "C4" H 3215 1771 50  0000 L CNN
F 1 "1uF" H 3215 1680 50  0000 L CNN
F 2 "Capacitor_SMD:C_0603_1608Metric" H 3138 1575 50  0001 C CNN
F 3 "~" H 3100 1725 50  0001 C CNN
	1    3100 1725
	-1   0    0    1   
$EndComp
$Comp
L power:GND #PWR0114
U 1 1 5ADD7136
P 3100 1875
F 0 "#PWR0114" H 3100 1625 50  0001 C CNN
F 1 "GND" H 3105 1702 50  0000 C CNN
F 2 "" H 3100 1875 50  0001 C CNN
F 3 "" H 3100 1875 50  0001 C CNN
	1    3100 1875
	1    0    0    -1  
$EndComp
Wire Wire Line
	1700 1275 1950 1275
Wire Wire Line
	1700 1050 1700 1275
Wire Wire Line
	1950 1400 1950 1275
Connection ~ 1950 1275
Wire Wire Line
	1950 1275 2350 1275
Wire Wire Line
	2350 1400 2350 1275
Connection ~ 2350 1275
Wire Wire Line
	2350 1275 3200 1275
Wire Wire Line
	3250 1525 3100 1525
Wire Wire Line
	3100 1525 3100 1575
$Comp
L power:GND #PWR0115
U 1 1 5ADF18F1
P 4075 7075
F 0 "#PWR0115" H 4075 6825 50  0001 C CNN
F 1 "GND" H 4080 6902 50  0000 C CNN
F 2 "" H 4075 7075 50  0001 C CNN
F 3 "" H 4075 7075 50  0001 C CNN
	1    4075 7075
	1    0    0    -1  
$EndComp
Text GLabel 4375 6675 2    50   Input ~ 0
USB_DP
Text GLabel 4375 6775 2    50   Input ~ 0
USB_DM
Text GLabel 8650 4475 2    50   Input ~ 0
USB_DM
Text GLabel 8650 4575 2    50   Input ~ 0
USB_DP
Text GLabel 2900 6475 0    50   Input ~ 0
SWD_IO
Text GLabel 2900 6375 0    50   Input ~ 0
SWD_CLK
$Comp
L power:GND #PWR0116
U 1 1 5ADF1EBC
P 2825 6225
F 0 "#PWR0116" H 2825 5975 50  0001 C CNN
F 1 "GND" H 2830 6052 50  0000 C CNN
F 2 "" H 2825 6225 50  0001 C CNN
F 3 "" H 2825 6225 50  0001 C CNN
	1    2825 6225
	-1   0    0    1   
$EndComp
Wire Wire Line
	2900 6275 2825 6275
Wire Wire Line
	2825 6275 2825 6225
Wire Wire Line
	9300 1450 9475 1450
Wire Wire Line
	9975 1450 9975 1550
Wire Wire Line
	9475 1525 9475 1450
Connection ~ 9475 1450
Wire Wire Line
	9475 1450 9975 1450
$Comp
L power:+3V3 #PWR0117
U 1 1 5ADF4A15
P 5700 3050
F 0 "#PWR0117" H 5700 2900 50  0001 C CNN
F 1 "+3V3" H 5715 3223 50  0000 C CNN
F 2 "" H 5700 3050 50  0001 C CNN
F 3 "" H 5700 3050 50  0001 C CNN
	1    5700 3050
	1    0    0    -1  
$EndComp
Wire Wire Line
	5650 3275 5650 3200
Wire Wire Line
	5650 3200 5700 3200
Wire Wire Line
	5750 3200 5750 3275
Wire Wire Line
	5700 3050 5700 3200
Connection ~ 5700 3200
Wire Wire Line
	5700 3200 5750 3200
$Comp
L power:GND #PWR0118
U 1 1 5ADF7BC0
P 5750 5400
F 0 "#PWR0118" H 5750 5150 50  0001 C CNN
F 1 "GND" H 5755 5227 50  0000 C CNN
F 2 "" H 5750 5400 50  0001 C CNN
F 3 "" H 5750 5400 50  0001 C CNN
	1    5750 5400
	1    0    0    -1  
$EndComp
Wire Wire Line
	5750 5400 5750 5175
Text GLabel 2850 4475 0    50   Input ~ 0
LOAD_SW2
Text GLabel 1400 6175 0    50   Input ~ 0
LOAD_SW1
Text GLabel 1375 7125 0    50   Input ~ 0
LOAD_SW2
$Comp
L Transistor_FET:FDS6930A Q2
U 2 1 5ADF9F07
P 1575 7125
F 0 "Q2" H 1780 7171 50  0000 L CNN
F 1 "FDS6930A" H 1780 7080 50  0000 L CNN
F 2 "Package_SO:SOIC-8_3.9x4.9mm_P1.27mm" H 1775 7050 50  0001 L CIN
F 3 "http://www.onsemi.com/pub/Collateral/FDS6930A-D.PDF" H 1575 7125 50  0001 L CNN
	2    1575 7125
	1    0    0    -1  
$EndComp
Text GLabel 2075 4725 2    50   Input ~ 0
SPI_MOSI
Text GLabel 8650 4375 2    50   Input ~ 0
SPI_MOSI
$Comp
L power:+3V3 #PWR0119
U 1 1 5ADFA5AB
P 6475 2775
F 0 "#PWR0119" H 6475 2625 50  0001 C CNN
F 1 "+3V3" H 6490 2948 50  0000 C CNN
F 2 "" H 6475 2775 50  0001 C CNN
F 3 "" H 6475 2775 50  0001 C CNN
	1    6475 2775
	1    0    0    -1  
$EndComp
$Comp
L Device:C_Small C9
U 1 1 5ADFA762
P 6475 2875
F 0 "C9" H 6567 2921 50  0000 L CNN
F 1 "C_Small" H 6567 2830 50  0000 L CNN
F 2 "Capacitor_SMD:C_0603_1608Metric_Pad0.84x1.00mm_HandSolder" H 6475 2875 50  0001 C CNN
F 3 "~" H 6475 2875 50  0001 C CNN
	1    6475 2875
	1    0    0    -1  
$EndComp
$Comp
L power:GND #PWR0120
U 1 1 5ADFA804
P 6475 2975
F 0 "#PWR0120" H 6475 2725 50  0001 C CNN
F 1 "GND" H 6480 2802 50  0000 C CNN
F 2 "" H 6475 2975 50  0001 C CNN
F 3 "" H 6475 2975 50  0001 C CNN
	1    6475 2975
	1    0    0    -1  
$EndComp
$Comp
L Device:C_Small C10
U 1 1 5ADFA83F
P 7075 2925
F 0 "C10" H 7167 2971 50  0000 L CNN
F 1 "C_Small" H 7167 2880 50  0000 L CNN
F 2 "Capacitor_SMD:C_0603_1608Metric_Pad0.84x1.00mm_HandSolder" H 7075 2925 50  0001 C CNN
F 3 "~" H 7075 2925 50  0001 C CNN
	1    7075 2925
	1    0    0    -1  
$EndComp
$Comp
L power:GND #PWR0121
U 1 1 5ADFA8C1
P 7075 3025
F 0 "#PWR0121" H 7075 2775 50  0001 C CNN
F 1 "GND" H 7080 2852 50  0000 C CNN
F 2 "" H 7075 3025 50  0001 C CNN
F 3 "" H 7075 3025 50  0001 C CNN
	1    7075 3025
	1    0    0    -1  
$EndComp
$Comp
L power:+3V3 #PWR0122
U 1 1 5ADFA8FE
P 7075 2825
F 0 "#PWR0122" H 7075 2675 50  0001 C CNN
F 1 "+3V3" H 7090 2998 50  0000 C CNN
F 2 "" H 7075 2825 50  0001 C CNN
F 3 "" H 7075 2825 50  0001 C CNN
	1    7075 2825
	1    0    0    -1  
$EndComp
$Comp
L power:GND #PWR0123
U 1 1 5ADFAD87
P 9000 2025
F 0 "#PWR0123" H 9000 1775 50  0001 C CNN
F 1 "GND" H 9005 1852 50  0000 C CNN
F 2 "" H 9000 2025 50  0001 C CNN
F 3 "" H 9000 2025 50  0001 C CNN
	1    9000 2025
	1    0    0    -1  
$EndComp
Wire Wire Line
	9000 1900 9000 2025
Text GLabel 8650 4675 2    50   Input ~ 0
SWD_IO
Text GLabel 8650 4775 2    50   Input ~ 0
SWD_CLK
Text GLabel 8650 4275 2    50   Input ~ 0
SPI_MISO
Text GLabel 8650 4175 2    50   Input ~ 0
SPI_CLK
Text GLabel 1575 4725 0    50   Input ~ 0
SPI_CLK
Text GLabel 1575 4825 0    50   Input ~ 0
SPI_MISO
$Comp
L power:GND #PWR0124
U 1 1 5ADFCB78
P 1500 4475
F 0 "#PWR0124" H 1500 4225 50  0001 C CNN
F 1 "GND" H 1505 4302 50  0000 C CNN
F 2 "" H 1500 4475 50  0001 C CNN
F 3 "" H 1500 4475 50  0001 C CNN
	1    1500 4475
	-1   0    0    1   
$EndComp
Wire Wire Line
	1575 4525 1500 4525
Wire Wire Line
	1500 4525 1500 4475
$Comp
L power:+3V3 #PWR0125
U 1 1 5ADFDF00
P 2150 4450
F 0 "#PWR0125" H 2150 4300 50  0001 C CNN
F 1 "+3V3" H 2165 4623 50  0000 C CNN
F 2 "" H 2150 4450 50  0001 C CNN
F 3 "" H 2150 4450 50  0001 C CNN
	1    2150 4450
	1    0    0    -1  
$EndComp
Wire Wire Line
	2075 4525 2150 4525
Wire Wire Line
	2150 4525 2150 4450
Text GLabel 2075 4825 2    50   Input ~ 0
RF_IRQ
Text GLabel 2850 4675 0    50   Input ~ 0
RF_IRQ
Text GLabel 2850 4375 0    50   Input ~ 0
LOAD_SW1
Text GLabel 8650 4075 2    50   Input ~ 0
SPI_CSN
Text GLabel 2075 4625 2    50   Input ~ 0
SPI_CSN
Text GLabel 1575 4625 0    50   Input ~ 0
RF_CE
Text GLabel 2750 4775 0    50   Input ~ 0
RF_CE
$Comp
L Device:R R3
U 1 1 5AE00894
P 2800 5000
F 0 "R3" H 2870 5046 50  0000 L CNN
F 1 "R" H 2870 4955 50  0000 L CNN
F 2 "Resistor_SMD:R_0603_1608Metric" V 2730 5000 50  0001 C CNN
F 3 "~" H 2800 5000 50  0001 C CNN
	1    2800 5000
	1    0    0    -1  
$EndComp
Wire Wire Line
	2800 4850 2800 4775
Connection ~ 2800 4775
Wire Wire Line
	2800 4775 2850 4775
Wire Wire Line
	2750 4775 2800 4775
$Comp
L power:GND #PWR0126
U 1 1 5AE0616A
P 2800 5150
F 0 "#PWR0126" H 2800 4900 50  0001 C CNN
F 1 "GND" H 2805 4977 50  0000 C CNN
F 2 "" H 2800 5150 50  0001 C CNN
F 3 "" H 2800 5150 50  0001 C CNN
	1    2800 5150
	1    0    0    -1  
$EndComp
NoConn ~ 4375 6475
NoConn ~ 4375 6875
NoConn ~ 3975 7075
$Comp
L Device:R R4
U 1 1 5AE0DE42
P 5600 6100
F 0 "R4" H 5670 6146 50  0000 L CNN
F 1 "R" H 5670 6055 50  0000 L CNN
F 2 "Resistor_SMD:R_0603_1608Metric" V 5530 6100 50  0001 C CNN
F 3 "~" H 5600 6100 50  0001 C CNN
	1    5600 6100
	1    0    0    -1  
$EndComp
$Comp
L Device:R R5
U 1 1 5AE0DEDA
P 5600 6625
F 0 "R5" H 5670 6671 50  0000 L CNN
F 1 "R" H 5670 6580 50  0000 L CNN
F 2 "Resistor_SMD:R_0603_1608Metric" V 5530 6625 50  0001 C CNN
F 3 "~" H 5600 6625 50  0001 C CNN
	1    5600 6625
	1    0    0    -1  
$EndComp
$Comp
L power:+12V #PWR0127
U 1 1 5AE0E04E
P 5600 5950
F 0 "#PWR0127" H 5600 5800 50  0001 C CNN
F 1 "+12V" H 5615 6123 50  0000 C CNN
F 2 "" H 5600 5950 50  0001 C CNN
F 3 "" H 5600 5950 50  0001 C CNN
	1    5600 5950
	1    0    0    -1  
$EndComp
$Comp
L power:GND #PWR0128
U 1 1 5AE0E11D
P 5600 6775
F 0 "#PWR0128" H 5600 6525 50  0001 C CNN
F 1 "GND" H 5605 6602 50  0000 C CNN
F 2 "" H 5600 6775 50  0001 C CNN
F 3 "" H 5600 6775 50  0001 C CNN
	1    5600 6775
	1    0    0    -1  
$EndComp
Wire Wire Line
	5600 6250 5600 6375
Text GLabel 5525 6375 0    50   Input ~ 0
BAT_VOLTAGE
Wire Wire Line
	5525 6375 5600 6375
Connection ~ 5600 6375
Wire Wire Line
	5600 6375 5600 6475
Text GLabel 8650 3675 2    50   Input ~ 0
BAT_VOLTAGE
NoConn ~ 2850 3675
$Comp
L power:GND #PWR0129
U 1 1 5AE13356
P 1675 7325
F 0 "#PWR0129" H 1675 7075 50  0001 C CNN
F 1 "GND" H 1680 7152 50  0000 C CNN
F 2 "" H 1675 7325 50  0001 C CNN
F 3 "" H 1675 7325 50  0001 C CNN
	1    1675 7325
	1    0    0    -1  
$EndComp
$Comp
L power:GND #PWR0130
U 1 1 5AE13480
P 1700 6375
F 0 "#PWR0130" H 1700 6125 50  0001 C CNN
F 1 "GND" H 1705 6202 50  0000 C CNN
F 2 "" H 1700 6375 50  0001 C CNN
F 3 "" H 1700 6375 50  0001 C CNN
	1    1700 6375
	1    0    0    -1  
$EndComp
$Comp
L power:+12V #PWR0131
U 1 1 5AE13A2D
P 1500 5550
F 0 "#PWR0131" H 1500 5400 50  0001 C CNN
F 1 "+12V" V 1515 5678 50  0000 L CNN
F 2 "" H 1500 5550 50  0001 C CNN
F 3 "" H 1500 5550 50  0001 C CNN
	1    1500 5550
	0    1    1    0   
$EndComp
$Comp
L power:+12V #PWR0132
U 1 1 5AE13AFC
P 2200 5550
F 0 "#PWR0132" H 2200 5400 50  0001 C CNN
F 1 "+12V" V 2215 5678 50  0000 L CNN
F 2 "" H 2200 5550 50  0001 C CNN
F 3 "" H 2200 5550 50  0001 C CNN
	1    2200 5550
	0    1    1    0   
$EndComp
Text GLabel 1500 5450 2    50   Input ~ 0
LOAD1
Text GLabel 2200 5450 2    50   Input ~ 0
LOAD2
Text GLabel 1675 6925 1    50   Input ~ 0
LOAD2
Text GLabel 1700 5975 1    50   Input ~ 0
LOAD1
$Comp
L Connector:Screw_Terminal_01x02 J7
U 1 1 5AE21EAF
P 1300 5550
F 0 "J7" H 1220 5225 50  0000 C CNN
F 1 "OUT1" H 1220 5316 50  0000 C CNN
F 2 "TerminalBlock_Phoenix:TerminalBlock_Phoenix_MPT-0,5-2-2.54_1x02_P2.54mm_Horizontal" H 1300 5550 50  0001 C CNN
F 3 "~" H 1300 5550 50  0001 C CNN
	1    1300 5550
	-1   0    0    1   
$EndComp
$Comp
L Connector:Screw_Terminal_01x02 J8
U 1 1 5AE25370
P 2000 5550
F 0 "J8" H 1920 5225 50  0000 C CNN
F 1 "OUT2" H 1920 5316 50  0000 C CNN
F 2 "TerminalBlock_Phoenix:TerminalBlock_Phoenix_MPT-0,5-2-2.54_1x02_P2.54mm_Horizontal" H 2000 5550 50  0001 C CNN
F 3 "~" H 2000 5550 50  0001 C CNN
	1    2000 5550
	-1   0    0    1   
$EndComp
$EndSCHEMATC
